{
  "consumerKey" : "",
  "consumerSecret" : "",
  "bitbucketAuthorizeUrl": "https://bitbucket.org/site/oauth2/authorize",
  "bitbucketAccessTokenUrl": "https://bitbucket.org/site/oauth2/access_token"
}
